<!-- ...................................................................... -->
<!-- XHTML Embedded Object Module  ........................................ -->
<!-- file: xhtml-object-1.mod

     This is XHTML, a reformulation of HTML as a modular XML application.
     Copyright 1998-2000 W3C (MIT, INRIA, Keio), All Rights Reserved.
     Revision: $Id: xhtml-object-1.mod,v 1.1 2003/03/23 11:34:28 mecca Exp $ SMI

     This DTD module is identified by the PUBLIC and SYSTEM identifiers:

       PUBLIC "-//W3C//ELEMENTS XHTML Embedded Object 1.0//EN"
       SYSTEM "http://www.w3.org/TR/xhtml-modulatization/DTD/xhtml-object-1.mod"

     Revisions:
     (none)
     ....................................................................... -->

<!-- Embedded Objects

        object

     This module declares the object element type and its attributes,
     used to embed external objects as part of XHTML pages. In the
     document, place param elements prior to the object elements 
     that require their content.

     Note that use of this module requires instantiation of the 
     Param Element Module prior to this module.
-->

<!-- object: Generic Embedded Object ................... -->

<!ENTITY % object.element  "INCLUDE" >
<![%object.element;[
<!ENTITY % object.content
     "( #PCDATA | %Flow.mix; | %param.qname; )*"
>
<!ENTITY % object.qname  "object" >
<!ELEMENT %object.qname;  %object.content; >
<!-- end of object.element -->]]>

<!ENTITY % object.attlist  "INCLUDE" >
<![%object.attlist;[
<!ATTLIST %object.qname;
      %Common.attrib;
      declare      ( declare )              #IMPLIED
      classid      %URI.datatype;           #IMPLIED
      codebase     %URI.datatype;           #IMPLIED
      data         %URI.datatype;           #IMPLIED
      type         %ContentType.datatype;   #IMPLIED
      codetype     %ContentType.datatype;   #IMPLIED
      archive      %URIs.datatype;          #IMPLIED
      standby      %Text.datatype;          #IMPLIED
      height       %Length.datatype;        #IMPLIED
      width        %Length.datatype;        #IMPLIED
      name         CDATA                    #IMPLIED
      tabindex     %Number.datatype;        #IMPLIED
>
<!-- end of object.attlist -->]]>

<!-- end of xhtml-object-1.mod -->
